{
    "compilerOptions": {
        "experimentalDecorators": true,
        "baseUrl": ".",
        "paths": {
            "c/lwcImageUploadToApi": [
                "lwcImageUploadToApi/lwcImageUploadToApi.js"
            ]
        }
    },
    "include": [
        "**/*",
        "../../../../.sfdx/typings/lwc/**/*.d.ts"
    ],
    "typeAcquisition": {
        "include": [
            "jest"
        ]
    },
    "paths": {
        "c/*": [
            "*"
        ]
    }
}
